<?xml version="1.0"?>
<robot xmlns:xacro="http://ros.org/wiki/xacro" name="dreamer_no_left_arm">

    <xacro:include filename="$(find dreamer_no_left_arm)/models/dreamer_no_left_arm/xacro/dreamer_no_left_arm.xacro" />

    <gazebo version='1.2'>
        <!-- The following plugin connects the RAPid controller to Gazebo -->
        <!-- <plugin filename="libRAPidPlugin.so" name="RAPid_plugin"/> -->
        <!-- <plugin name="dreamer_no_left_arm_plugin" filename="libdreamer_no_left_arm_plugin.so"/> -->
        <plugin filename="libSMControlPlugin.so" name="SMControlPlugin">
            <node>/sm_control_plugin</node>
        </plugin>

        <!-- The following plugin provides ground-truth odometry -->
        <plugin filename="libgazebo_ros_p3d.so" name="pos_plugin_ros">
            <alwaysOn>true</alwaysOn>
            <updateRate>1000.0</updateRate>
            <bodyName>panplate</bodyName>
            <topicName>/dreamer_no_left_arm_controller/root_link_odom</topicName>
            <frameName>world</frameName>
            <rpyOffset>0 0 0</rpyOffset>
            <xyzOffset>0 0 1.0</xyzOffset>
        </plugin>
    </gazebo>
</robot>

